:10007200FFFF3505AD02CC0049049A00B0212705E7
:0A00820050F58600BBFD010086006A
:06009A00020042FB2EFBF8
:1000A4008AF3A60000000000FF21AF21AF21000069
:1000B4000A00CE00DC009F00BA0053FD000040FDA2
:0800C40008FA27FA17FA1900E7
:00000001FF
