:10004600FFFF7605AD01A0001E046E00B040C80497
:0A00560051F55A00ABFD01005A00FD
:06006E00020043FB2FFB22
:100078008BF37A0000000000FF40AF40AF40000063
:100088000A00A300B10074008F0043FD000030FD9A
:0800980009FA28FA18FA190010
:00000001FF
