:10003400FFFF020BAD018E00AA095C00B008540A50
:0A004400E2024800F03F010048000E
:06005C00020054064006FC
:10006600793B680000000000FF08AF08AF080000F9
:100076000A0090009E0061007C005A0200004702C0
:08008600CD3CEC3CDC3C190010
:00000001FF
