:1024000000000000000000000000000000000000CC
:1024100000000000000000000000000000000000BC
:1024200000000000000000000000000000000000AC
:10243000000000000000000000000000000000009C
:10244000000000000000000000000000000000008C
:0A2450000000000000000000000082
:10248000000000000000000000000000000000004C
:10249000000000000000000000000000000000003C
:1024A000000000000000000000000000000000002C
:1024B000000000000000000000000000000000001C
:1024C000000000000000000000000000000000000C
:1024D00000000000000000000000000000000000FC
:1024E00000000000000000000000000000000000EC
:1024F00000000000000000000000000000000000DC
:1025000000000000000000000000000000000000CB
:1025100000000000000000000000000000000000BB
:1025200000000000000000000000000000000000AB
:10253000000000000000000000000000000000009B
:10254000000000000000000000000000000000008B
:10255000000000000000000000000000000000007B
:10256000000000000000000000000000000000006B
:10257000000000000000000000000000000000005B
:0C2580000000000000000000000000004F
:10E000000B4D535034333046353532390000FF075D
:10E01000666C6572617365001AE0364407560697B0
:10E02000272C369000440328369000E006283690CE
:10E0300000181E28369090191B2C32C2B24000A541
:10E040004401B24002A54001B6430000B24000A521
:10E050004001B24010A5440132D236900044052858
:10E06000369000E0022C3650C00136504000D73FB9
:10E070003744364530460FE0FF0221697EE03644E2
:10E0800017B31E2026971C2437900044032837908E
:10E0900000E00628379000180A2837909019072CBE
:10E0A00032C2B24000A54401B24040A540018746BB
:10E0B0000000B24000A54001B24010A5440132D298
:10E0C00037443645304679E0FF0363216900D0E0EC
:10E0D00036446697F527379000440328379000E0D0
:10E0E0000628379000180A2837909019072C32C25A
:10E0F000B24000A54401B24040A54001C74600001F
:10E10000B24000A54001B24010A5440132D2D83F30
:10E11000C9E0FF04642D3E691AE136443A4407938E
:10E12000202432C2B24000A54401B24040A54001C3
:10E1300017930B2416B309207B4A7C4A8C100BDC06
:10E14000864B000026531783033CF64A0000165303
:10E15000B24000A54001B24010A5440132D217835D
:10E16000E02337443645304613E1FF09666C616CA5
:10E1700069676E656400D8E1F4E10002E8E26CE4EE
:10E18000F4E1FF0180E436E40AE26BE1FF0453416D
:10E190005645D8E1F4E10024F4E10018F4E18000F0
:10E1A0001AED18E018E10AE28DE1FF08696E697462
:10E1B0002D72616DD8E1F4E10018F4E36AE5F6E54B
:10E1C00008002EEBE2E50600F4E10018F4E100247B
:10E1D000F4E180001CE70AE20512054636453046A8
:10E1E000ABE1FF076578656375746500EEE106478E
:10E1F00037443046F6E124838447000037453645EE
:10E200003046E3E1FF04657869740CE23541364538
:10E21000304605E2FF087661726961626C65D8E19B
:10E2200036EF36E2C2FC5EEA0AE215E2FF08636FEF
:10E230006E7374616E74D8E100F496F4FEF544E2F6
:10E2400044EF0AE2248384470000274636453046DF
:10E25000248384470000074636453046248384479C
:10E260000000074605121546FEFF2552364530468A
:10E270002DE2FF0475736572D8E100F4FEF586E2C5
:10E2800044EF96F40AE22483844700002746075EA1
:10E290003645304673E2FF03647570009EE22483C6
:10E2A000844700003645304697E2FF043F647570AE
:10E2B000B2E20793F42336453046ABE2FF046472C2
:10E2C0006F70C4E2374436453046BDE2FF047377D1
:10E2D0006170D4E226448447000007463645304644
:10E2E000CDE2FF046F766572EAE226442483844718
:10E2F0000000074636453046E3E2FF03726F7400C4
:10E3000002E32644844700001744020084460200CA
:10E3100036453046FBE2FF036E6970001EE324536E
:10E320003645304617E3FF047475636BD8E1D2E2DB
:10E33000E8E20AE227E3FF023E723CE307123744B9
:10E340003645304637E3FF02723E4CE32483844770
:10E35000000037413645304647E3FF02724060E334
:10E360002483844700002741364530465BE3FF03A2
:10E37000323E720076E336440612071237443645C1
:10E3800030466FE3FF0332723E008CE32482844701
:10E39000020037413641844600003645304685E369
:10E3A000FF0373704000A8E3248384470000074400
:10E3B00036453046A1E3FF0373702100BEE30447F6
:10E3C000374436453046B7E3FF0372704000D0E370
:10E3D000248384470000074136453046C9E3FF03E4
:10E3E00072702100E6E30147374436453046DFE3EB
:10E3F000FF014000F6E3274736453046F1E3FF01D1
:10E40000210004E4B7440000374436453046FFE3BA
:10E41000FF02634016E467473645304611E4FF02C9
:10E42000632124E43644C74600003744364530466D
:10E430001FE4FF012B0038E437543645304633E4FF
:10E44000FF022B2146E4B7540000374436453046DE
:10E4500041E4FF026D2B58E48457020084630000FE
:10E4600037443645304653E4FF012D006EE4364410
:10E47000068707463645304669E4FF03616E64004F
:10E4800082E437F4364530467BE4FF026F7290E455
:10E4900037D4364530468BE4FF03786F7200A0E432
:10E4A00037E43645304699E4FF06696E7665727446
:10E4B000B2E437E336453046A9E4FF066E6567618E
:10E4C0007465C4E437E3175336453046BBE4FF02B6
:10E4D000312BD4E4175336453046CFE4FF02312DBB
:10E4E000E2E4178336453046DDE4FF023E3CF0E4CB
:10E4F000871036453046EBE4FF02322AFEE4075728
:10E5000036453046F9E4FF02322F0CE50711364557
:10E51000304607E5FF066C73686966741EE536448D
:10E5200037F01F00032406561783FD2307463645A0
:10E53000304615E5FF067273686966743EE5364439
:10E5400037F01F00042412C306101783FC2307466C
:10E550003645304635E5FF02303D5CE517830777E9
:10E560003645304657E5FF02303C6CE507570777E4
:10E5700037E33645304667E5FF013D007EE536442A
:10E580000687112407433645304679E5FF023C3EB5
:10E59000D8E17CE55AE50AE28DE5FF013C00A0E503
:10E5A00036440687EF373743364530469BE5FF0153
:10E5B0003E00D8E1D2E29EE50AE2AFE5FF02753CFB
:10E5C000C2E536440687EF2BDD3FBDE5FF02753E11
:10E5D000D8E1D2E2C0E50AE2CDE5FF066272616EE3
:10E5E0006368E4E5255536453046DBE5FF073F62C5
:10E5F00072616E636800F8E507533744F3272553CB
:10E600003645304606E621828149020081480000F5
:10E610003940008039840847085937443645304628
:10E6200022E6185332B00001DD2725533841394125
:10E630003645304636E60857374432B00001D22717
:10E6400025533841394136453046EDE5FF01690033
:10E6500052E6248384470000074807893645304640
:10E660004DE6FF016A0068E62483844700002741E5
:10E67000178102003645304663E6FF06756E6C6F03
:10E680006F7084E638413941364530467BE6FF03FA
:10E69000756D2A0096E632C292440000C00482479B
:10E6A000C80403439442CA0400001742CC0432D287
:10E6B000364530468FE6FF06756D2F6D6F64C0E6F8
:10E6C0003B442A440C43364011000B9701280B872A
:10E6D0000C6C092C168306240A5A0B6BF62B0B873D
:10E6E00012D3F63F12C3844B0000074C3645304628
:10E6F000B7E6FF0466696C6CFAE63A4436440A935E
:10E700000524C647000016531A83FB2337443645B9
:10E710003046F3E6FF05636D6F7665001EE736440D
:10E720003A4407930524F64A000016531783FB2347
:10E7300037443645304615E7FF06636D6F76653E14
:10E7400042E736443A440793082406570A571A8387
:10E750001683E64A00001783FA23374436453046CD
:10E7600039E7FF0563736B697000D8E13AE39CE217
:10E77000F6E51600E8E214E45EE37CE5F6E50A005F
:10E78000B8FCA4EFE2E5E8FF4AE3C2E20AE263E78D
:10E79000FF05637363616E00D8E13AE3E8E29CE24F
:10E7A00014E45EE37CE55AE5F6E51800D2E2E0E425
:10E7B000D2E2E8E26AE55AE5F6E50800D2E4E2E5ED
:10E7C000DEFF1CE3E8E26CE44AE3C2E20AE291E71E
:10E7D000FF02733DD6E736443A4407930A24FA967B
:10E7E000000004201A531783FA23033C07770757C6
:10E7F000175336453046D1E7FF05616C69676E00F7
:10E80000D8E16CEFB8FC80E47EEF0AE2F9E7FF079D
:10E81000616C69676E656400D8E19CE2B8FC80E4D5
:10E8200036E40AE20FE8FF0563656C6C2B0030E804
:10E8300027533645304627E8FF0563656C6C730047
:10E84000FEE439E8FF053E626F64790030E845E890
:10E85000FF037570400058E8248384470000074E8A
:10E860003645304651E8FF03757021006EE80E47CB
:10E8700037443645304667E8FF026372D8E1F4E179
:10E880000D0004FEF4E10A0004FE0AE279E8FF0547
:10E89000737061636500D8E1FAEA04FE0AE28FE86A
:10E8A000FF06737061636573D8E1AEFCD8EC9CE23F
:10E8B000F6E50A0096E8E0E4E2E5F4FFC2E20AE2E7
:10E8C000A1E8FF04756D696ED8E11AEDD0E5F6E5B3
:10E8D0000400D2E2C2E20AE2C3E8FF04756D617887
:10E8E000D8E11AEDC0E5F6E50400D2E2C2E20AE2A0
:10E8F000DBE8FF06616363657074D8E1E8E236E443
:10E90000E0E4E8E226FE9CE27CE95AE5F6E5520006
:10E910009CE2F4E108007CE5F6E52600C2E200E3B3
:10E920001AEDB2E53AE300E300E34AE3F6E50E0050
:10E930006CE9E0E43AE3E8E24AE3E0E8E2E51E00FD
:10E940009CE2FAEA9EE5F6E50600C2E2FAEA9CE2FB
:10E9500004FEE8E222E4D2E4E8E2C8E8E2E5A6FF49
:10E96000C2E21CE3D2E26CE47CE80AE2D8E1F4E122
:10E9700008009CE204FE96E804FE0AE2D8E19CE26C
:10E98000F4E10D007CE5D2E2F4E10A007CE58EE4DE
:10E990000AE2F3E8FF0474797065D8E10EEF0EF730
:10E9A000F6E50E0004E650E614E404FE20E6F8FF67
:10E9B0000AE295E9FF06613E696E666FD8E1F4E10F
:10E9C0000018F4E100246CE436E40AE2B5E9FF0340
:10E9D0003E696E0086E21800CFE9FF04626173654C
:10E9E00086E20C00DBE9FF0573746174650044E2A4
:10E9F0008224E7E9FF02647044E21E24F5E9FF0B7C
:10EA00006765742D63757272656E7400D8E1F4E108
:10EA10002424F4E30AE2FFE9FF03686C640044E2A3
:10EA2000842419EAFF026C7044E2862425EAFF037D
:10EA30006964700044E220242FEAFF066E65776562
:10EA4000737444E288243BEAFF066C617465737456
:10EA500044E28C2449EAFF05616C6C6F7400D8E1D4
:10EA6000F8E944E40AE257EAFF0370616400D8E180
:10EA700036EFF4E1280036E40AE269EAFF036C703D
:10EA8000300044E2EC247DEAFF037270300044E27F
:10EA90008C2589EAFF037370300044E23C2595EA37
:10EAA000FF0A726566696C6C2D746962D8E1E4EAEC
:10EAB000F4E15C00FAE8F0EA02E4AEFCD4E902E436
:10EAC000CCFC0AE2A1EAFF0A736F757263652D74CC
:10EAD0006962D8E1E4EAF0EAF4E30AE2C7EAFF0394
:10EAE0007469620044E29024DFEAFF0423746962DF
:10EAF00044E28E24EBEAFF02626C44E22000F7EA73
:10EB0000FF07746F757070657200D8E19CE2F4E1E4
:10EB10006100F4E17B008AF7F6E50800F4E1DF002C
:10EB200080E40AE201EBFF0575696E69740050E24A
:10EB300002007AFBEAFB000000000100262400002E
:10EB400000000000000000000000000070F98C25AB
:10EB500000445A242624BBFE41FE0CEA0024000097
:10EB6000000000000000000000000A0056FE6EFEDB
:10EB70008AFEA2FED2EA0000ACEA44F280F260F221
:10EB800027EBFF03733E6400D8E19CE26AE50AE2EA
:10EB900083EBFF073F6E656761746500D8E16AE546
:10EBA000F6E50400C2E40AE293EBFF03616273003E
:10EBB000D8E19CE29CEB0AE2ABEBFF07646E656771
:10EBC00061746500D8E1D2E2B0E4D2E2B0E4B8FC0E
:10EBD00056E40AE2BBEBFF083F646E65676174654B
:10EBE000D8E16AE5F6E50400C4EB0AE2D7EBFF04DE
:10EBF00064616273D8E19CE2E0EB0AE2EFEBFF02B2
:10EC00006D2AD8E11AED9EE43AE3D2E2B0EBD2E20B
:10EC1000B0EB94E64AE3E0EB0AE2FFEBFF06736D2C
:10EC20002F72656DD8E11AED9EE43AE3E8E23AE32B
:10EC3000B0EB3AE3F4EB4AE3BEE6D2E24AE39CEB04
:10EC4000D2E24AE39CEB0AE21DECFF06666D2F6DF3
:10EC50006F64D8E19CE23AE31AED9EE43AE33AE3CA
:10EC6000F4EB5EE3B0EBBEE6D2E24AE39CEBD2E229
:10EC70004AE36AE5F6E51400C2E4E8E2F6E50C00D2
:10EC80005EE300E36CE4D2E2E0E44AE3C2E20AE2DB
:10EC90004BECFF012A00D8E102ECC2E20AE293EC5D
:10ECA000FF042F6D6F64D8E13AE388EB4AE352EC3E
:10ECB0000AE2A1ECFF012F00D8E1A6EC1CE30AE276
:10ECC000B5ECFF036D6F6400D8E1A6ECC2E20AE286
:10ECD000C3ECFF036D617800D8E11AED9EE5F6E51F
:10ECE0000400D2E2C2E20AE2D3ECFF036D696E00D7
:10ECF000D8E11AEDB2E5F6E50400D2E2C2E20AE29A
:10ED0000EBECFF053264726F7000D8E1C2E2C2E240
:10ED10000AE203EDFF0432647570D8E1E8E2E8E24C
:10ED20000AE215EDFF05327377617000D8E100E368
:10ED30003AE300E34AE30AE225EDFF0669636F75F3
:10ED40006E74D8E19CE2D2E4D2E214E40AE23BED34
:10ED5000FF05697479706500D8E19AE90AE251ED1E
:10ED6000FF0428732229D8E14AE342ED1AED36E484
:10ED700018E83AE30AE261EDFE027322D8E1F4E119
:10ED80002200BEEFEEE9F4E3F6E50400ACED0AE2A2
:10ED900079EDFE022E22D8E17CEDFEF558ED0AE277
:10EDA00093EDFE08736C69746572616CD8E1FEF5D1
:10EDB00066ED0CFC0AE2A3EDFE08326C6974657224
:10EDC000616CD8E1D2E284F084F00AE2B9EDFF028E
:10EDD0004069F6E3CFEDFF036340690016E4D7ED29
:10EDE000FF0675642F6D6F64D8E13AE3AEFC5EE315
:10EDF000BEE64AE3D2E23AE3BEE64AE30AE2E1EDE6
:10EE0000FF0375642A00D8E19CE23AE394E6C2E28B
:10EE1000D2E24AE394E600E336E40AE201EEFF04BC
:10EE2000686F6C64D8E11EEA9CE2F4E3E0E49CE2E3
:10EE30003AE3D2E202E44AE322E40AE21FEEFF02EE
:10EE40003C23D8E16EEA1EEA02E40AE23FEEFF014B
:10EE50002300D8E1E0E9F4E3E8ED00E3F4E10900A0
:10EE6000E8E29EE5F6E50800F4E1070036E4F4E1A7
:10EE7000300036E424EE0AE24FEEFF022373D8E1BD
:10EE800052EE1AED8EE45AE5F6E5F6FF0AE27BEE65
:10EE9000FF02233ED8E10AED1EEAF4E36EEAE8E25F
:10EEA0006CE40AE291EEFF047369676ED8E16AE5EB
:10EEB000F6E50800F4E12D0024EE0AE2A7EEFF02D9
:10EEC000752ED8E1AEFC64F80AE2BFEEFF012E0019
:10EED000D8E188EBA4F80AE2CDEEFF076465636928
:10EEE0006D616C00D8E1F4E10A00E0E902E40AE2B5
:10EEF000DBEEFF0368657800D8E1F4E11000E0E99B
:10EF000002E40AE2F3EEFF06626F756E6473D8E105
:10EF1000E8E236E4D2E20AE207EFFF047069636BCD
:10EF2000D8E1D2E440E8A6E336E4F4E30AE21BEFDA
:10EF3000FF0468657265D8E1F8E9F4E30AE231EFAD
:10EF4000FF012C00D8E16CEF7CE0C2FC7EEF0AE20E
:10EF500041EFFF02632CD8E16CEFCEE0B8FC7EEF0E
:10EF60000AE253EFFF05696865726500D8E134EA8B
:10EF7000F4E30AE265EFFF0669616C6C6F74D8E137
:10EF800034EA44E40AE277EFFF06736F7572636553
:10EF9000E8FC1600D8FDF0FD89EFFF072F737472AF
:10EFA000696E6700D8E100E3E8E236E400E300E3DD
:10EFB0006CE40AE29BEFFF05706172736500D8E1B3
:10EFC0003AE390EFD4E9F4E3A4EF4AE398E79CE254
:10EFD000D2E4D4E944E4B8FCA4EF0AE2B7EFFF07B7
:10EFE0006E66613E6C666100D8E1F4E103006CE49A
:10EFF0000AE2DFEFFF076E66613E63666100D8E1FB
:10F0000042EDF4E17F0080E436E418E80AE2F5EF2F
:10F01000FF0A6E616D653E666C616773D8E1E0E47E
:10F02000DCED0AE2D8E1B8FC80E45AE5F6E506003A
:10F03000B8FC0AE2CCFC0AE211F0FF0766696E64D4
:10F040002D787400D8E1F4E15CF0F4E10A24C4FA0C
:10F050005AE5F6E506000AEDAEFC0AE2D8E13AE32D
:10F060001AED4AE35AFC9CE2F6E50C003AE31CE395
:10F070001CE34AE3CCFC0AE23BF0FE076C697465D2
:10F0800072616C00D8E1FEF5F4E144EF0AE27BF036
:10F09000FF0664696769743FD8E10AEB9CE2F4E11A
:10F0A0003900B2E5F4E1000180E436E49CE2F4E1E9
:10F0B0004001B2E5F4E1070180E46CE4F4E13000E2
:10F0C0006CE49CE2E0E9F4E3C0E50AE2D8E1E8E2BE
:10F0D00014E4F4E12D007CE59CE23AE3F6E5060059
:10F0E000B8FCA4EF4AE30AE250E20A001000020072
:10F0F0000A00D8E1E8E214E4F4E123006CE49CE2C5
:10F10000AEFCF4E104008AF7F6E5160040E8E8F00A
:10F1100036E4D2EDE0E902E4B8FCA4EFE2E5040055
:10F12000C2E20AE291F0FF073E6E756D6265720001
:10F13000D8E19CE2F6E52A00E8E214E498F05AE50A
:10F14000F6E50600C2E20AE23AE32CEDE0E9F4E378
:10F1500006EE4AE356E42CEDB8FCA4EFE2E5D4FF5A
:10F160000AE227F1FF066E756D626572D8E1E0E98B
:10F17000F4E33AE3CCF03AE3F2F0CCF04AE38EE485
:10F180003AE39CE25AE5F6E512000AED4AE3C2E2F0
:10F190004AE3E0E902E4AEFC0AE274E3AEFCAEFC52
:10F1A0008AE330F1B0E2F6E53600B8FC7CE5F6E53E
:10F1B0001C0014E4F4E12E007CE5F6E512004AE3BD
:10F1C000F6E50400C4EBC2FCE2E52000C2E20AED71
:10F1D0004AE3C2E24AE3E0E902E4AEFC0AE20AEDF5
:10F1E0004AE3F6E50400C2E4B8FC4AE3E0E902E4DD
:10F1F000CCFC0AE265F1FF10666F7274682D7265CF
:10F20000636F676E697A657210FD2C24B0FDC4FDD2
:10F21000F7F1FF09696E7465727072657400D8E168
:10F220008AFA9CE2F6E51A0008F214FBEEE9F4E330
:10F23000F6E5040034F5D2EDECE158FAE2E5E2FF40
:10F240000AED0AE2D8E166ED03206F6B58ED0AE2A1
:10F2500013F2FF032E6F6B00E8FC1C00D8FDF0FDDD
:10F26000D8E166ED023E20007CE858ED0AE253F258
:10F27000FF062E7265616479E8FC2000D8FDF0FD80
:10F28000D8E166ED04203F3F200058EDE0E9F4E3CB
:10F290003AE3E4EED0EED4E9F4E3D0EE4AE3E0E979
:10F2A00002E40AE271F2FF062E6572726F72E8FCE8
:10F2B0001E00D8FDF0FDA7F2FF06726566696C6C52
:10F2C000E8FC1A00D8FDF0FDB9F2FF04717569740D
:10F2D000D8E182EA28EA02E49AEABCE38EEAE4E3AF
:10F2E00072F4EEE9F4E35AE5F6E5040078F2C0F2D0
:10F2F000F6E52000F4E11EF262F5B0E2F6E5140056
:10F300009CE2F4E1FEFF9EE5F6E50400AEF2E2E5E4
:10F31000C2FF58F2E2E5CCFFCBF2FF0561626F72EB
:10F320007400D8E1CCFC9EF51BF3FF063F61626FD1
:10F330007274D8E100E3F6E5060058ED22F30AED19
:10F340000AE22BF3FE0661626F727422D8E17CED53
:10F35000FEF532F30AE245F3FF012700D8E18AFA0D
:10F3600008F214FB9CE25EFB7CE5D2E2D2EDF4E114
:10F37000A0FD7CE58EE4F6E50800F4E1F3FF9EF5E0
:10F38000C2E20AE259F3FF0463686172D8E18AFAC3
:10F39000C2E214E40AE287F3FE065B636861725D11
:10F3A000D8E1FEF5F4E18CF344EF0AE299F3FE01B3
:10F3B0002800D8E1F4E12900BEEF0AED0AE2AFF33C
:10F3C000FF06686561646572D8E1F4E344EFF4E137
:10F3D000FF0056EF6CEF3AE30CFC4AE30AE2C1F39C
:10F3E000FF06637265617465D8E100F496F4FEF57A
:10F3F00050E20AE2E1F3FF0828637265617465294F
:10F40000D8E18AFA22F49CE242EA2EE802E4C8F348
:10F4100042EA02E40AE2F7F3FF07776C73636F7066
:10F420006500E8FC2A24B0FDC4FD19F4FE05646FF4
:10F4300065733E00D8E1FEF544F4FEF53040FEF57C
:10F440005CE20AE2D8E14AE342EA2EE8F4E3F4E3BC
:10F45000FEEF7CE00AE22DF4FE07726563757273BD
:10F460006500D8E150EAF4E344EF0AE259F4FE0102
:10F470005B00D8E1AEFCEEE902E40AE26FF4FF01C2
:10F480005D00D8E1B8FCEEE902E40AE27FF4FF0691
:10F4900072657665616CD8E142EA2EE8F4E3B0E289
:10F4A000F6E50A0042EAF4E3D2E202E40AE28FF46B
:10F4B000FF013A00D8E100F4CAF4C2E20AE2B1F472
:10F4C000FF073A6E6F6E616D6500D8E16CEF9CE2EC
:10F4D00050EA02E4FEF5D8E182F40AE2C1F4FE014A
:10F4E0003B00D8E1FEF50AE272F496F40AE2DFF49A
:10F4F000FE035B275D00D8E15CF384F00AE2F1F4DF
:10F50000FE08706F7374706F6E65D8E18AFA08F246
:10F5100014FB9CE23AE334F534F5D2EDECE14AE336
:10F5200034F5D2ED44EF0AE201F5FF07692D63657A
:10F530006C6C2B00D8E12EE80AE22BF5FF09696D0F
:10F540006D65646961746500D8E1F4E1FE000CEA60
:10F55000F4E3E0E4CEE00AE23DF5FF0563617463A5
:10F560006800D8E1A6E33AE390F5F4E33AE3CEE3AA
:10F5700090F502E4ECE14AE390F502E44AE3C2E2EA
:10F58000AEFC0AE25BF5FF0768616E646C657200B1
:10F5900086E20A0087F5FF057468726F7700D8E18C
:10F5A0009CE25AE5F6E50600C2E20AE290F5F4E3D1
:10F5B000E4E34AE390F502E44AE3D2E23AE3BCE34F
:10F5C000C2E24AE30AE2D8E158FA6CEFE8E26CE4FE
:10F5D000D2E27CE00AE2D8E16CEFFEF5FFFF0AE23E
:10F5E000D8E158FA6CEF6CE444EF0AE2D8E16CEF32
:10F5F0000AE297F5FF07636F6D70696C6500D8E1EB
:10F600004AE39CE234F53AE3D2ED44EF0AE2F5F541
:10F61000FE05616865616400D8E1FEF5E2E5D6F5B6
:10F620000AE211F6FE026966D8E1FEF5F6E5D6F5C6
:10F630000AE225F6FE047468656ED8E1C6F50AE2B2
:10F6400035F6FE04656C7365D8E1FEF5E2E5D6F5A6
:10F65000D2E2C6F50AE243F6FE05626567696E000E
:10F66000D8E1ECF50AE259F6FE05756E74696C0096
:10F67000D8E1F4E1F6E544EFE0F50AE269F6FE05CB
:10F68000616761696E00D8E1FEF5E2E5E0F50AE246
:10F690007FF6FE057768696C6500D8E128F6D2E24E
:10F6A0000AE293F6FE06726570656174D8E186F62B
:10F6B0003AF60AE2A5F6FF023E6CD8E1C2FC28EA5F
:10F6C00044E428EAF4E302E40AE2B7F6FF026C3EFF
:10F6D000D8E128EAF4E3F4E3F4E1FEFF28EA44E4A5
:10F6E0000AE2CDF6FE02646FD8E1FEF504E6ECF521
:10F6F000AEFCBAF60AE2E5F6FE033F646F00D8E11D
:10F70000FEF50EF728F6E8F6D2E2BAF60AE2D8E1FC
:10F710001AED7CE59CE23AE3F6E504000AED4AE3E3
:10F72000B0E40AE2F9F6FF07656E646C6F6F700073
:10F73000D8E1E0F5D0F6B0E2F6E508003AF6E2E509
:10F74000F4FF0AE227F7FE046C6F6F70D8E1FEF554
:10F7500020E630F70AE247F7FE052B6C6F6F70006A
:10F76000D8E1FEF534E630F70AE259F7FE056C659C
:10F7700061766500D8E1FEF582E618F6BAF60AE28F
:10F780006DF7FF0677697468696ED8E1E8E26CE4AA
:10F790003AE36CE44AE3C0E50AE283F7FF056465F7
:10F7A00070746800D8E19AEAA6E36CE40AE5E0E444
:10F7B0000AE29DF7FF05776F72647300D8E1F4E108
:10F7C0000C24F4E332F80AE2B5F7FF1174726176A3
:10F7D000657273652D776F72646C69737400D8E11C
:10F7E000F4E39CE2F6E51A001AED74E3D2E2ECE1F0
:10F7F0008AE300E3F6E50A00E8EFD2EDE2E5E4FF94
:10F800000AED0AE2CBF7FF0B6E616D653E73747211
:10F81000696E6700D8E142EDF4E1FF0080E40AE29E
:10F8200007F8FF0D73686F772D776F72646C6973DB
:10F830007400D8E1F4E13EF8D2E2DEF70AE2D8E162
:10F8400014F858ED96E8CCFC0AE223F8FF03752E75
:10F850007200D8E1AEFCD2E276F80AE24DF8FF037E
:10F8600075642E00D8E1AEFC76F896E80AE25FF8FF
:10F87000FF0475642E72D8E13AE342EE7EEE94EE18
:10F880004AE3E8E26CE4A8E89AE90AE271F8FF02C8
:10F890002E72D8E13AE388EB4AE3B6F80AE28FF831
:10F8A000FF02642ED8E1AEFCB6F896E80AE2A1F8B1
:10F8B000FF03642E7200D8E13AE32CE3F4EB42EE4E
:10F8C0007EEE00E3ACEE94EE4AE3E8E26CE4A8E8F6
:10F8D0009AE90AE2B1F8FF04636F6C64DEF8B240A3
:10F8E000805A5C0132D04000B24020006601B24034
:10F8F00044016801B24008136001B2404000620157
:10F90000B240F400640103430343034332C04000A8
:10F9100082436E01A2C30201A2B30201F92F31405A
:10F920008C2534403C253E402E2435404EF936454A
:10F930003046D7F8FF05706175736500E8FC8024D8
:10F94000B0FDC4FD35F9FF047761726DD8E1B4E113
:10F95000F4E1A0FDF4E13CF988FD72F42AFDD0F257
:10F9600047F9FF0B6170706C7475726E6B6579008E
:10F97000D8E1C2FE0AFA96E842FAF4E1E803BEE6EC
:10F980001CE3E4EED0EE66ED036B487A58ED0AE234
:10F9900063F9FF0B656E7669726F6E6D656E74004C
:10F9A00044E228240000FF086D63752D696E666FC0
:10F9B000D8E1F4E1B8F90AE200200000FFDF01001D
:10F9C000A7F9FF0363707500D8E1F4E100E042EDB0
:10F9D0000AE2C3F9FF0A666F7274682D6E616D6585
:10F9E000D8E166ED07616D666F7274680AE2D5F959
:10F9F000FF0776657273696F6E00D8E1F4E13F002E
:10FA00000AE293F9FF0376657200D8E1E0F958ED58
:10FA100096E8E0E9F4E3FAF9E4EE88EB42EE52EE20
:10FA2000F4E12E0024EE7EEE94EE9AE9E0E902E4A1
:10FA300096E8C8F958ED0AE205FAFF05665F6370BB
:10FA40007500D8E1F4E10012F4E17A000AE23BFA31
:10FA5000FF063F737461636BD8E1A4F76AE5F6E5CE
:10FA60000800F4E1FCFF9EF50AE251FAFE015C0099
:10FA7000D8E190EF1CE3D4E902E40AE26DFAFF0A50
:10FA800070617273652D6E616D65D8E1FAEA92FA64
:10FA90000AE2D8E13AE390EFD4E9F4E3A4EF5EE3BD
:10FAA0006AE74AE398E71AED36E490EFC2E26CE4C5
:10FAB000D4E902E40AE27FFAFF096D61702D7374E4
:10FAC00061636B00D8E19CE22EE8D2E2F4E340E807
:10FAD0000EEF0EF7F6E5260004E650E6F4E3D2E278
:10FAE0003AE35EE3ECE1B0E2F6E50A004AE3C2E2A3
:10FAF00082E60AE24AE3C2FC34E6E0FFC2E2AEFC80
:10FB00000AE2B9FAFF0D646F2D7265636F676E6963
:10FB10007A657200D8E1F4E12AFBD2E2C4FA5AE530
:10FB2000F6E506000AED5EFB0AE2D8E100E300E339
:10FB30001AED74E300E3ECE18AE300E39CE25EFB90
:10FB40007CE5F6E50800C2E2AEFC0AE21CE31CE339
:10FB5000CCFC0AE205FBFF06723A6661696C50E272
:10FB600066FB66FB66FBD8E1F4E1F3FF9EF557FB0D
:10FB7000FF087265633A776F7264D8E144F09CE2E3
:10FB80005AE5F6E50800C2E25EFB0AE29AFB0AE2E9
:10FB900071FBFF06723A776F726450E2A2FBAAFB18
:10FBA000C2EDD8E1C2E2ECE10AE2D8E16AE5F6E5AD
:10FBB000060044EF0AE2ECE10AE293FBFF05723A29
:10FBC0006E756D0050E2A0FD84F084F0BDFBFF0671
:10FBD000723A646E756D50E2A0FDC2EDC2EDCFFBCE
:10FBE000FF077265633A6E756D00D8E16CF1F6E55A
:10FBF0001200B8FC7CE5F6E50600C4FB0AE2D6FB81
:10FC00000AE25EFB0AE2E1FBFE02732CD8E19CE211
:10FC10003AE356EF6CEF5EE318E14AE37EEF00E86B
:10FC20000AE209FCFF07636F6D7061726500D8E13D
:10FC300000E3E8E290E5F6E50A00C2E20AEDCCFC5A
:10FC40000AE2D4E70AE225FCFF0F7365617263687C
:10FC50002D776F72646C69737400D8E13AE3AEFC7F
:10FC6000F4E184FC4AE3DEF79CE25AE5F6E50A009B
:10FC70000AEDC2E2AEFC0AE29CE2FEEFD2E21CF028
:10FC800024F00AE2D8E13AE3C2E21AED5EE314F8A6
:10FC90002EFCF6E50C004AE3C2E2AEFCCCFC0AE224
:10FCA0000AED4AE3AEFC0AE249FCFF01300044E2FF
:10FCB0000000ABFCFF01310044E20100B5FCFF0194
:10FCC000320044E20200BFFCFF022D3144E2FFFF9C
:10FCD000C9FCFF072864656665722900D8E100F455
:10FCE00096F4FEF5E8FC0AE230405CE29CE234F572
:10FCF000D2EDECE1ECE10AE2D3FCFF072876616C7F
:10FD000075652900D8E100F496F4FEF510FD0AE2CD
:10FD100030405CE29CE234F5D2EDECE10AE2FBFC1F
:10FD2000FF077475726E6B657900E8FC1C24B0FDEA
:10FD3000C4FD21FDFE02746FD8E15CF34CE8EEE9EE
:10FD4000F4E3F6E51600FEF54EFD44EF0AE2D8E1D5
:10FD50004AE39CE234F53AE3D2ED9CE234F534F523
:10FD6000D2EDECE10AE235FDFF066465666572409E
:10FD7000D8E14CE89CE234F5D2EDECE10AE269FD11
:10FD8000FF06646566657221D8E14CE89CE234F5B3
:10FD900034F5D2EDECE10AE281FDFF046E6F6F7085
:10FDA000D8E10AE29BFDFF07526465666572400078
:10FDB000D8E1D2EDF4E30AE2A7FDFF0752646566DD
:10FDC00065722100D8E1D2ED02E40AE2BBFDFF0733
:10FDD0005564656665724000D8E1D2ED56E836E4B8
:10FDE000F4E30AE2CFFDFF07556465666572210002
:10FDF000D8E1D2ED56E836E402E40AE2E7FDFF047A
:10FE0000656D6974E8FC0E00D8FDF0FDFFFDFF058F
:10FE1000656D69743F00E8FC1000D8FDF0FD0FFE31
:10FE2000FF036B657900E8FC1200D8FDF0FD21FEB0
:10FE3000FF046B65793FE8FC1400D8FDF0FDF1F993
:10FE4000FF052F7573657200D8E1F4E12C000AE21A
:10FE500031FEFF027478D8E116FEF6E5FCFFF4E10E
:10FE60000E0622E40AE253FEFF0374783F00D8E155
:10FE70003CF9F4E102009CE2F4E11D0614E480E4A4
:10FE80007CE50AE269FEFF027278D8E136FEF6E50B
:10FE9000FCFFF4E10C0614E40AE287FEFF0372782B
:10FEA0003F00D8E13CF9F4E101009CE2F4E11D06D9
:10FEB00014E480E47CE50AE29DFEFF062B75736185
:10FEC0007274C4FEF24030002B02D2430006F2D01E
:10FED00080000006A2420606F2403B000806D2C39C
:06FEE00000063645304625
:02FFFE00DEF82B
:00000001FF
